WAVE/AAAB0505.CSV

ModelName,DS-5314
FileVersion,1
Acquisition Time,2016/11/17 17:11:18
Time/div(second),500E-06
Delay(second),-2.02E-03
Delta(second),500E-09
Acquisition Mode,Average,64
Trigger Address,960
CH1 Display,On
CH2 Display,On
CH3 Display,Off
CH4 Display,Off
CH1 Volt/div,5.00E+00
CH2 Volt/div,20.0E-03
CH3 Volt/div,2.00E+00
CH4 Volt/div,20.0E-03
CH1 Offset,7.70E+00
CH2 Offset,4.80E-03
CH3 Offset,0.00E+00
CH4 Offset,-23.6E-03
CH1 Coupling,AC1M
CH2 Coupling,AC1M
CH3 Coupling,AC1M
CH4 Coupling,AC1M
CH1 Bandwidth,20MHz
CH2 Bandwidth,Full
CH3 Bandwidth,Full
CH4 Bandwidth,Full
Points,10001
Ch1 V,Ch2 V,Ch3 V,Ch4 V
-1.598E+01,1.450E-03,,
-1.598E+01,1.450E-03,,
-1.598E+01,1.450E-03,,
-1.598E+01,1.450E-03,,
-1.598E+01,1.450E-03,,
-1.598E+01,1.450E-03,,
-1.598E+01,1.450E-03,,
-1.598E+01,1.450E-03,,
-1.598E+01,2.075E-03,,
-1.598E+01,2.075E-03,,
-1.598E+01,2.075E-03,,
-1.598E+01,2.075E-03,,
-1.598E+01,2.075E-03,,
-1.582E+01,2.075E-03,,
-1.582E+01,2.075E-03,,
-1.598E+01,2.075E-03,,
-1.598E+01,2.075E-03,,
-1.582E+01,2.075E-03,,
-1.598E+01,2.075E-03,,
-1.598E+01,2.075E-03,,
-1.582E+01,2.075E-03,,
-1.598E+01,2.075E-03,,
-1.598E+01,2.075E-03,,
-1.582E+01,2.075E-03,,
-1.598E+01,2.075E-03,,
-1.598E+01,2.075E-03,,
-1.598E+01,2.075E-03,,
-1.598E+01,2.075E-03,,
-1.582E+01,2.075E-03,,
-1.582E+01,2.075E-03,,
-1.582E+01,2.075E-03,,
-1.582E+01,2.075E-03,,
-1.582E+01,2.075E-03,,
-1.582E+01,2.075E-03,,
-1.582E+01,2.075E-03,,
-1.582E+01,2.075E-03,,
-1.582E+01,2.075E-03,,
-1.582E+01,2.075E-03,,
-1.598E+01,2.075E-03,,
-1.582E+01,2.075E-03,,
-1.582E+01,2.075E-03,,
-1.582E+01,2.075E-03,,
-1.582E+01,2.075E-03,,
-1.582E+01,2.075E-03,,
-1.582E+01,2.075E-03,,
-1.582E+01,2.075E-03,,
-1.582E+01,2.075E-03,,
-1.582E+01,2.075E-03,,
-1.598E+01,2.075E-03,,
-1.598E+01,2.075E-03,,
-1.582E+01,2.700E-03,,
-1.582E+01,2.700E-03,,
-1.582E+01,2.700E-03,,
-1.582E+01,2.700E-03,,
-1.598E+01,2.700E-03,,
-1.582E+01,2.700E-03,,
-1.582E+01,2.700E-03,,
-1.598E+01,2.700E-03,,
-1.582E+01,2.700E-03,,
-1.598E+01,2.700E-03,,
-1.582E+01,2.700E-03,,
-1.582E+01,2.700E-03,,
-1.582E+01,2.700E-03,,
-1.582E+01,2.700E-03,,
-1.582E+01,2.700E-03,,
-1.582E+01,2.700E-03,,
-1.582E+01,2.700E-03,,
-1.582E+01,2.700E-03,,
-1.582E+01,2.700E-03,,
-1.598E+01,2.700E-03,,
-1.598E+01,2.700E-03,,
-1.582E+01,2.700E-03,,
-1.582E+01,2.700E-03,,
-1.582E+01,2.700E-03,,
-1.582E+01,2.700E-03,,
-1.582E+01,2.700E-03,,
-1.582E+01,2.700E-03,,
-1.582E+01,2.700E-03,,
-1.582E+01,2.700E-03,,
-1.598E+01,2.700E-03,,
-1.582E+01,2.700E-03,,
-1.582E+01,2.700E-03,,
-1.582E+01,2.700E-03,,
-1.582E+01,2.700E-03,,
-1.582E+01,2.700E-03,,
-1.582E+01,2.700E-03,,
-1.582E+01,2.700E-03,,
-1.582E+01,2.700E-03,,
-1.582E+01,2.700E-03,,
-1.582E+01,2.700E-03,,
-1.582E+01,2.700E-03,,
-1.582E+01,2.700E-03,,
-1.582E+01,2.700E-03,,
-1.582E+01,2.700E-03,,
-1.582E+01,2.700E-03,,
-1.598E+01,2.700E-03,,
-1.582E+01,2.700E-03,,
-1.582E+01,2.700E-03,,
-1.582E+01,2.700E-03,,
-1.582E+01,2.700E-03,,
-1.582E+01,2.700E-03,,
-1.582E+01,2.700E-03,,
-1.582E+01,2.700E-03,,
-1.582E+01,2.700E-03,,
-1.582E+01,2.700E-03,,
-1.582E+01,2.700E-03,,
-1.598E+01,3.325E-03,,
-1.582E+01,3.325E-03,,
-1.582E+01,3.325E-03,,
-1.582E+01,3.325E-03,,
-1.582E+01,3.325E-03,,
-1.582E+01,3.325E-03,,
-1.582E+01,3.325E-03,,
-1.582E+01,3.325E-03,,
-1.582E+01,3.325E-03,,
-1.582E+01,3.325E-03,,
-1.582E+01,3.325E-03,,
-1.582E+01,3.325E-03,,
-1.582E+01,3.325E-03,,
-1.582E+01,3.325E-03,,
-1.582E+01,3.325E-03,,
-1.582E+01,3.325E-03,,
-1.582E+01,3.325E-03,,
-1.582E+01,3.325E-03,,
-1.582E+01,3.325E-03,,
-1.582E+01,3.325E-03,,
-1.582E+01,3.325E-03,,
-1.582E+01,3.325E-03,,
-1.582E+01,3.325E-03,,
-1.582E+01,3.325E-03,,
-1.582E+01,3.325E-03,,
-1.582E+01,3.325E-03,,
-1.582E+01,3.325E-03,,
-1.582E+01,3.325E-03,,
-1.582E+01,3.325E-03,,
-1.582E+01,3.325E-03,,
-1.582E+01,3.325E-03,,
-1.582E+01,3.325E-03,,
-1.582E+01,3.325E-03,,
-1.582E+01,3.325E-03,,
-1.582E+01,3.325E-03,,
-1.582E+01,3.325E-03,,
-1.582E+01,3.325E-03,,
-1.582E+01,3.325E-03,,
-1.582E+01,3.325E-03,,
-1.582E+01,3.325E-03,,
-1.582E+01,3.325E-03,,
-1.582E+01,3.325E-03,,
-1.582E+01,3.325E-03,,
-1.582E+01,3.325E-03,,
-1.582E+01,3.325E-03,,
-1.582E+01,3.325E-03,,
-1.582E+01,3.325E-03,,
-1.582E+01,3.325E-03,,
-1.582E+01,3.325E-03,,
-1.582E+01,3.325E-03,,
-1.582E+01,3.325E-03,,
-1.582E+01,3.325E-03,,
-1.582E+01,3.325E-03,,
-1.582E+01,3.325E-03,,
-1.582E+01,3.325E-03,,
-1.582E+01,3.325E-03,,
-1.582E+01,3.325E-03,,
-1.582E+01,3.325E-03,,
-1.582E+01,3.325E-03,,
-1.582E+01,3.325E-03,,
-1.582E+01,3.325E-03,,
-1.582E+01,3.325E-03,,
-1.582E+01,3.325E-03,,
-1.582E+01,3.325E-03,,
-1.582E+01,3.950E-03,,
-1.582E+01,3.950E-03,,
-1.582E+01,3.950E-03,,
-1.582E+01,3.950E-03,,
-1.582E+01,3.950E-03,,
-1.582E+01,3.950E-03,,
-1.582E+01,3.950E-03,,
-1.582E+01,3.950E-03,,
-1.582E+01,3.950E-03,,
-1.582E+01,3.950E-03,,
-1.582E+01,3.950E-03,,
-1.582E+01,3.950E-03,,
-1.582E+01,3.950E-03,,
-1.582E+01,3.950E-03,,
-1.582E+01,3.950E-03,,
-1.582E+01,3.950E-03,,
-1.582E+01,3.950E-03,,
-1.582E+01,3.950E-03,,
-1.582E+01,3.950E-03,,
-1.582E+01,3.950E-03,,
-1.582E+01,3.950E-03,,
-1.582E+01,3.325E-03,,
-1.582E+01,3.325E-03,,
-1.582E+01,3.950E-03,,
-1.582E+01,3.950E-03,,
-1.582E+01,3.950E-03,,
-1.582E+01,3.950E-03,,
-1.582E+01,3.950E-03,,
-1.582E+01,3.950E-03,,
-1.582E+01,3.950E-03,,
-1.582E+01,3.950E-03,,
-1.582E+01,3.950E-03,,
-1.582E+01,3.950E-03,,
-1.582E+01,3.950E-03,,
-1.582E+01,3.950E-03,,
-1.582E+01,3.950E-03,,
-1.582E+01,3.950E-03,,
-1.582E+01,3.950E-03,,
-1.582E+01,3.950E-03,,
-1.582E+01,3.950E-03,,
-1.582E+01,3.950E-03,,
-1.582E+01,3.950E-03,,
-1.582E+01,3.950E-03,,
-1.582E+01,3.950E-03,,
-1.582E+01,3.950E-03,,
-1.582E+01,3.950E-03,,
-1.582E+01,3.950E-03,,
-1.582E+01,3.950E-03,,
-1.582E+01,3.950E-03,,
-1.582E+01,3.950E-03,,
-1.582E+01,3.950E-03,,
-1.582E+01,3.950E-03,,
-1.582E+01,3.950E-03,,
-1.582E+01,3.950E-03,,
-1.582E+01,3.950E-03,,
-1.582E+01,3.950E-03,,
-1.582E+01,4.575E-03,,
-1.582E+01,4.575E-03,,
-1.582E+01,4.575E-03,,
-1.582E+01,4.575E-03,,
-1.582E+01,4.575E-03,,
-1.582E+01,4.575E-03,,
-1.582E+01,4.575E-03,,
-1.582E+01,4.575E-03,,
-1.582E+01,4.575E-03,,
-1.582E+01,4.575E-03,,
-1.582E+01,4.575E-03,,
-1.582E+01,4.575E-03,,
-1.582E+01,4.575E-03,,
-1.582E+01,3.950E-03,,
-1.582E+01,3.950E-03,,
-1.582E+01,3.950E-03,,
-1.582E+01,3.950E-03,,
-1.582E+01,3.950E-03,,
-1.582E+01,3.950E-03,,
-1.582E+01,3.950E-03,,
-1.582E+01,3.950E-03,,
-1.582E+01,3.950E-03,,
-1.582E+01,3.950E-03,,
-1.582E+01,3.950E-03,,
-1.582E+01,3.950E-03,,
-1.582E+01,3.950E-03,,
-1.582E+01,3.950E-03,,
-1.582E+01,3.950E-03,,
-1.582E+01,3.950E-03,,
-1.582E+01,3.950E-03,,
-1.582E+01,3.950E-03,,
-1.582E+01,3.950E-03,,
-1.582E+01,3.950E-03,,
-1.582E+01,3.950E-03,,
-1.582E+01,3.950E-03,,
-1.582E+01,3.950E-03,,
-1.582E+01,3.950E-03,,
-1.582E+01,3.950E-03,,
-1.582E+01,4.575E-03,,
-1.582E+01,4.575E-03,,
-1.582E+01,4.575E-03,,
-1.582E+01,4.575E-03,,
-1.582E+01,4.575E-03,,
-1.582E+01,3.950E-03,,
-1.582E+01,3.950E-03,,
-1.582E+01,3.950E-03,,
-1.582E+01,3.950E-03,,
-1.582E+01,3.950E-03,,
-1.582E+01,3.950E-03,,
-1.582E+01,3.950E-03,,
-1.582E+01,3.950E-03,,
-1.582E+01,3.950E-03,,
-1.582E+01,3.950E-03,,
-1.582E+01,3.950E-03,,
-1.582E+01,3.950E-03,,
-1.582E+01,3.950E-03,,
-1.582E+01,3.950E-03,,
-1.582E+01,3.950E-03,,
-1.582E+01,3.950E-03,,
-1.582E+01,3.950E-03,,
-1.582E+01,3.950E-03,,
-1.582E+01,3.950E-03,,
-1.582E+01,3.950E-03,,
-1.582E+01,3.950E-03,,
-1.582E+01,3.950E-03,,
-1.582E+01,3.950E-03,,
-1.582E+01,3.950E-03,,
-1.582E+01,3.950E-03,,
-1.582E+01,3.950E-03,,
-1.582E+01,3.950E-03,,
-1.582E+01,3.950E-03,,
-1.582E+01,3.950E-03,,
-1.582E+01,3.950E-03,,
-1.582E+01,3.950E-03,,
-1.582E+01,3.950E-03,,
-1.582E+01,3.950E-03,,
-1.582E+01,3.950E-03,,
-1.582E+01,3.950E-03,,
-1.582E+01,3.950E-03,,
-1.582E+01,3.950E-03,,
-1.582E+01,3.950E-03,,
-1.582E+01,3.950E-03,,
-1.582E+01,3.950E-03,,
-1.582E+01,3.950E-03,,
-1.582E+01,3.950E-03,,
-1.582E+01,3.950E-03,,
-1.582E+01,3.950E-03,,
-1.582E+01,3.950E-03,,
-1.582E+01,3.950E-03,,
-1.582E+01,3.950E-03,,
-1.582E+01,3.950E-03,,
-1.582E+01,3.950E-03,,
-1.582E+01,3.950E-03,,
-1.582E+01,3.950E-03,,
-1.582E+01,3.950E-03,,
-1.582E+01,3.950E-03,,
-1.582E+01,3.950E-03,,
-1.582E+01,3.950E-03,,
-1.582E+01,3.950E-03,,
-1.582E+01,3.950E-03,,
-1.582E+01,3.950E-03,,
-1.582E+01,3.950E-03,,
-1.582E+01,3.950E-03,,
-1.582E+01,3.950E-03,,
-1.582E+01,3.950E-03,,
-1.582E+01,3.950E-03,,
-1.582E+01,3.950E-03,,
-1.582E+01,3.950E-03,,
-1.582E+01,3.950E-03,,
-1.582E+01,3.950E-03,,
-1.582E+01,3.950E-03,,
-1.582E+01,3.950E-03,,
-1.582E+01,3.950E-03,,
-1.582E+01,3.950E-03,,
-1.582E+01,3.950E-03,,
-1.582E+01,3.950E-03,,
-1.582E+01,3.950E-03,,
-1.582E+01,3.950E-03,,
-1.582E+01,3.950E-03,,
-1.582E+01,3.950E-03,,
-1.582E+01,3.950E-03,,
-1.582E+01,3.950E-03,,
-1.582E+01,3.950E-03,,
-1.582E+01,4.575E-03,,
-1.582E+01,3.950E-03,,
-1.582E+01,3.950E-03,,
-1.582E+01,3.950E-03,,
-1.582E+01,3.950E-03,,
-1.582E+01,3.950E-03,,
-1.582E+01,3.950E-03,,
-1.582E+01,3.950E-03,,
-1.582E+01,3.950E-03,,
-1.582E+01,4.575E-03,,
-1.582E+01,3.950E-03,,
-1.582E+01,3.950E-03,,
-1.582E+01,3.950E-03,,
-1.582E+01,3.950E-03,,
-1.582E+01,3.950E-03,,
-1.582E+01,3.950E-03,,
-1.582E+01,3.950E-03,,
-1.582E+01,3.950E-03,,
-1.582E+01,3.950E-03,,
-1.582E+01,3.950E-03,,
-1.582E+01,4.575E-03,,
-1.582E+01,4.575E-03,,
-1.582E+01,4.575E-03,,
-1.582E+01,4.575E-03,,
-1.582E+01,4.575E-03,,
-1.582E+01,4.575E-03,,
-1.582E+01,4.575E-03,,
-1.582E+01,4.575E-03,,
-1.582E+01,4.575E-03,,
-1.582E+01,4.575E-03,,
-1.582E+01,4.575E-03,,
-1.582E+01,4.575E-03,,
-1.582E+01,4.575E-03,,
-1.582E+01,4.575E-03,,
-1.582E+01,4.575E-03,,
-1.582E+01,4.575E-03,,
-1.582E+01,4.575E-03,,
-1.582E+01,4.575E-03,,
-1.582E+01,4.575E-03,,
-1.582E+01,4.575E-03,,
-1.582E+01,4.575E-03,,
-1.582E+01,4.575E-03,,
-1.582E+01,4.575E-03,,
-1.582E+01,4.575E-03,,
-1.582E+01,5.200E-03,,
-1.582E+01,5.200E-03,,
-1.582E+01,5.200E-03,,
-1.582E+01,5.200E-03,,
-1.582E+01,5.200E-03,,
-1.582E+01,5.200E-03,,
-1.582E+01,5.200E-03,,
-1.582E+01,5.200E-03,,
-1.582E+01,5.200E-03,,
-1.582E+01,5.200E-03,,
-1.582E+01,5.200E-03,,
-1.582E+01,5.200E-03,,
-1.582E+01,4.575E-03,,
-1.582E+01,4.575E-03,,
-1.582E+01,4.575E-03,,
-1.582E+01,4.575E-03,,
-1.582E+01,4.575E-03,,
-1.582E+01,4.575E-03,,
-1.582E+01,4.575E-03,,
-1.582E+01,4.575E-03,,
-1.582E+01,4.575E-03,,
-1.582E+01,5.200E-03,,
-1.582E+01,5.200E-03,,
-1.582E+01,4.575E-03,,
-1.582E+01,5.200E-03,,
-1.582E+01,5.200E-03,,
-1.582E+01,5.200E-03,,
-1.582E+01,5.200E-03,,
-1.582E+01,5.200E-03,,
-1.582E+01,5.200E-03,,
-1.582E+01,5.200E-03,,
-1.582E+01,5.200E-03,,
-1.582E+01,5.200E-03,,
-1.582E+01,5.200E-03,,
-1.582E+01,5.200E-03,,
-1.582E+01,5.200E-03,,
-1.582E+01,5.200E-03,,
-1.582E+01,5.200E-03,,
-1.582E+01,5.200E-03,,
-1.582E+01,5.200E-03,,
-1.582E+01,5.200E-03,,
-1.582E+01,5.200E-03,,
-1.582E+01,5.200E-03,,
-1.582E+01,5.200E-03,,
-1.582E+01,5.200E-03,,
-1.582E+01,4.575E-03,,
-1.582E+01,5.200E-03,,
-1.582E+01,5.200E-03,,
-1.582E+01,5.200E-03,,
-1.582E+01,5.200E-03,,
-1.582E+01,5.200E-03,,
-1.582E+01,5.200E-03,,
-1.582E+01,5.200E-03,,
-1.582E+01,5.200E-03,,
-1.582E+01,5.200E-03,,
-1.582E+01,5.200E-03,,
-1.582E+01,5.200E-03,,
-1.582E+01,5.200E-03,,
-1.582E+01,5.200E-03,,
-1.582E+01,5.200E-03,,
-1.582E+01,5.200E-03,,
-1.582E+01,5.200E-03,,
-1.582E+01,5.200E-03,,
-1.582E+01,5.200E-03,,
-1.582E+01,5.200E-03,,
-1.582E+01,5.825E-03,,
-1.582E+01,5.825E-03,,
-1.582E+01,5.825E-03,,
-1.582E+01,5.825E-03,,
-1.582E+01,5.825E-03,,
-1.582E+01,5.825E-03,,
-1.582E+01,5.825E-03,,
-1.582E+01,5.825E-03,,
-1.582E+01,5.825E-03,,
-1.582E+01,5.825E-03,,
-1.582E+01,5.825E-03,,
-1.582E+01,5.825E-03,,
-1.582E+01,5.825E-03,,
-1.582E+01,5.825E-03,,
-1.582E+01,5.825E-03,,
-1.582E+01,5.825E-03,,
-1.582E+01,5.825E-03,,
-1.582E+01,5.825E-03,,
-1.582E+01,5.825E-03,,
-1.582E+01,5.825E-03,,
-1.582E+01,5.200E-03,,
-1.582E+01,5.200E-03,,
-1.582E+01,5.200E-03,,
-1.582E+01,5.200E-03,,
-1.582E+01,5.200E-03,,
-1.582E+01,5.200E-03,,
-1.582E+01,5.200E-03,,
-1.582E+01,5.200E-03,,
-1.582E+01,5.200E-03,,
-1.582E+01,5.200E-03,,
-1.582E+01,5.200E-03,,
-1.582E+01,5.200E-03,,
-1.582E+01,5.200E-03,,
-1.582E+01,5.200E-03,,
-1.582E+01,5.200E-03,,
-1.582E+01,5.200E-03,,
-1.582E+01,5.825E-03,,
-1.582E+01,5.825E-03,,
-1.582E+01,5.825E-03,,
-1.582E+01,5.825E-03,,
-1.582E+01,5.825E-03,,
-1.582E+01,5.825E-03,,
-1.582E+01,5.825E-03,,
-1.582E+01,5.825E-03,,
-1.582E+01,5.825E-03,,
-1.582E+01,5.200E-03,,
-1.582E+01,5.200E-03,,
-1.582E+01,5.200E-03,,
-1.582E+01,5.200E-03,,
-1.582E+01,5.200E-03,,
-1.582E+01,5.200E-03,,
-1.582E+01,5.200E-03,,
-1.582E+01,5.200E-03,,
-1.582E+01,5.200E-03,,
-1.582E+01,5.200E-03,,
-1.582E+01,5.200E-03,,
-1.582E+01,5.200E-03,,
-1.582E+01,5.200E-03,,
-1.582E+01,5.200E-03,,
-1.582E+01,5.200E-03,,
-1.582E+01,5.200E-03,,
-1.582E+01,5.200E-03,,
-1.582E+01,5.200E-03,,
-1.582E+01,5.200E-03,,
-1.582E+01,5.200E-03,,
-1.582E+01,5.200E-03,,
-1.582E+01,5.200E-03,,
-1.582E+01,5.200E-03,,
-1.582E+01,5.200E-03,,
-1.582E+01,5.200E-03,,
-1.566E+01,5.200E-03,,
-1.582E+01,5.200E-03,,
-1.582E+01,5.200E-03,,
-1.582E+01,5.200E-03,,
-1.582E+01,5.200E-03,,
-1.582E+01,5.825E-03,,
-1.582E+01,5.825E-03,,
-1.582E+01,5.825E-03,,
-1.582E+01,5.825E-03,,
-1.582E+01,5.825E-03,,
-1.566E+01,5.200E-03,,
-1.582E+01,5.200E-03,,
-1.566E+01,5.200E-03,,
-1.566E+01,5.200E-03,,
-1.582E+01,5.825E-03,,
-1.566E+01,5.825E-03,,
-1.582E+01,5.825E-03,,
-1.582E+01,5.825E-03,,
-1.582E+01,5.825E-03,,
-1.582E+01,5.825E-03,,
-1.582E+01,5.825E-03,,
-1.582E+01,5.825E-03,,
-1.582E+01,5.825E-03,,
-1.582E+01,5.825E-03,,
-1.582E+01,5.825E-03,,
-1.566E+01,5.825E-03,,
-1.582E+01,5.825E-03,,
-1.582E+01,5.825E-03,,
-1.582E+01,5.825E-03,,
-1.582E+01,5.825E-03,,
-1.582E+01,5.825E-03,,
-1.566E+01,5.825E-03,,
-1.582E+01,5.825E-03,,
-1.566E+01,5.825E-03,,
-1.566E+01,5.825E-03,,
-1.566E+01,5.825E-03,,
-1.566E+01,5.825E-03,,
-1.566E+01,5.825E-03,,
-1.582E+01,5.825E-03,,
-1.566E+01,5.825E-03,,
-1.582E+01,5.825E-03,,
-1.582E+01,5.825E-03,,
-1.582E+01,5.825E-03,,
-1.566E+01,5.825E-03,,
-1.566E+01,5.825E-03,,
-1.566E+01,5.825E-03,,
-1.566E+01,5.825E-03,,
-1.582E+01,5.825E-03,,
-1.582E+01,5.825E-03,,
-1.566E+01,5.825E-03,,
-1.566E+01,5.825E-03,,
-1.566E+01,5.825E-03,,
-1.566E+01,5.825E-03,,
-1.566E+01,5.825E-03,,
-1.566E+01,5.825E-03,,
-1.566E+01,5.825E-03,,
-1.566E+01,5.825E-03,,
-1.566E+01,5.825E-03,,
-1.566E+01,5.825E-03,,
-1.566E+01,5.825E-03,,
-1.566E+01,5.825E-03,,
-1.566E+01,5.825E-03,,
-1.566E+01,5.825E-03,,
-1.582E+01,5.825E-03,,
-1.566E+01,5.825E-03,,
-1.566E+01,5.825E-03,,
-1.566E+01,5.825E-03,,
-1.582E+01,5.825E-03,,
-1.566E+01,5.825E-03,,
-1.566E+01,5.825E-03,,
-1.566E+01,5.825E-03,,
-1.582E+01,5.825E-03,,
-1.582E+01,5.825E-03,,
-1.566E+01,5.200E-03,,
-1.566E+01,5.200E-03,,
-1.566E+01,5.200E-03,,
-1.566E+01,5.200E-03,,
-1.566E+01,5.200E-03,,
-1.582E+01,5.200E-03,,
-1.582E+01,5.200E-03,,
-1.566E+01,5.200E-03,,
-1.566E+01,5.200E-03,,
-1.566E+01,5.200E-03,,
-1.582E+01,5.200E-03,,
-1.566E+01,5.200E-03,,
-1.566E+01,5.200E-03,,
-1.566E+01,5.200E-03,,
-1.566E+01,5.200E-03,,
-1.582E+01,5.200E-03,,
-1.566E+01,5.200E-03,,
-1.566E+01,5.200E-03,,
-1.566E+01,5.200E-03,,
-1.566E+01,5.200E-03,,
-1.566E+01,5.200E-03,,
-1.566E+01,5.200E-03,,
-1.566E+01,5.200E-03,,
-1.566E+01,5.200E-03,,
-1.566E+01,5.200E-03,,
-1.566E+01,5.200E-03,,
-1.566E+01,5.200E-03,,
-1.566E+01,5.200E-03,,
-1.566E+01,5.200E-03,,
-1.566E+01,5.200E-03,,
-1.566E+01,5.200E-03,,
-1.566E+01,5.200E-03,,
-1.566E+01,5.200E-03,,
-1.566E+01,5.200E-03,,
-1.582E+01,5.200E-03,,
-1.566E+01,5.200E-03,,
-1.566E+01,5.200E-03,,
-1.566E+01,5.200E-03,,
-1.566E+01,5.200E-03,,
-1.566E+01,5.200E-03,,
-1.566E+01,5.200E-03,,
-1.566E+01,5.200E-03,,
-1.566E+01,5.200E-03,,
-1.566E+01,5.200E-03,,
-1.566E+01,5.200E-03,,
-1.566E+01,5.200E-03,,
-1.566E+01,5.200E-03,,
-1.566E+01,5.200E-03,,
-1.566E+01,5.200E-03,,
-1.582E+01,5.200E-03,,
-1.566E+01,5.200E-03,,
-1.566E+01,5.200E-03,,
-1.566E+01,5.200E-03,,
-1.566E+01,5.825E-03,,
-1.566E+01,5.825E-03,,
-1.566E+01,5.200E-03,,
-1.566E+01,5.200E-03,,
-1.566E+01,5.200E-03,,
-1.566E+01,5.200E-03,,
-1.566E+01,5.200E-03,,
-1.566E+01,5.200E-03,,
-1.566E+01,5.200E-03,,
-1.566E+01,5.200E-03,,
-1.566E+01,5.200E-03,,
-1.566E+01,5.200E-03,,
-1.566E+01,5.200E-03,,
-1.566E+01,5.200E-03,,
-1.566E+01,5.200E-03,,
-1.566E+01,5.200E-03,,
-1.566E+01,5.200E-03,,
-1.566E+01,5.200E-03,,
-1.566E+01,5.200E-03,,
-1.566E+01,5.200E-03,,
-1.566E+01,5.200E-03,,
-1.566E+01,5.200E-03,,
-1.566E+01,5.200E-03,,
-1.566E+01,5.200E-03,,
-1.566E+01,5.200E-03,,
-1.566E+01,5.200E-03,,
-1.566E+01,5.200E-03,,
-1.566E+01,5.200E-03,,
-1.566E+01,5.200E-03,,
-1.566E+01,5.200E-03,,
-1.582E+01,5.200E-03,,
-1.566E+01,5.200E-03,,
-1.566E+01,5.200E-03,,
-1.566E+01,5.200E-03,,
-1.566E+01,5.200E-03,,
-1.566E+01,5.200E-03,,
-1.566E+01,5.200E-03,,
-1.566E+01,5.200E-03,,
-1.566E+01,5.200E-03,,
-1.566E+01,4.575E-03,,
-1.566E+01,5.200E-03,,
-1.566E+01,5.200E-03,,
-1.566E+01,5.200E-03,,
-1.566E+01,5.200E-03,,
-1.566E+01,5.200E-03,,
-1.566E+01,5.200E-03,,
-1.566E+01,4.575E-03,,
-1.566E+01,5.200E-03,,
-1.566E+01,5.200E-03,,
-1.566E+01,5.200E-03,,
-1.566E+01,5.200E-03,,
-1.566E+01,5.200E-03,,
-1.566E+01,5.200E-03,,
-1.566E+01,5.200E-03,,
-1.566E+01,5.200E-03,,
-1.566E+01,5.200E-03,,
-1.566E+01,5.200E-03,,
-1.566E+01,5.200E-03,,
-1.566E+01,5.200E-03,,
-1.566E+01,5.200E-03,,
-1.566E+01,5.200E-03,,
-1.566E+01,5.200E-03,,
-1.566E+01,5.200E-03,,
-1.566E+01,5.200E-03,,
-1.566E+01,5.200E-03,,
-1.566E+01,5.200E-03,,
-1.566E+01,5.200E-03,,
-1.566E+01,5.200E-03,,
-1.566E+01,5.200E-03,,
-1.566E+01,5.200E-03,,
-1.566E+01,5.200E-03,,
-1.566E+01,5.200E-03,,
-1.566E+01,5.200E-03,,
-1.566E+01,5.200E-03,,
-1.566E+01,5.200E-03,,
-1.566E+01,5.200E-03,,
-1.566E+01,5.200E-03,,
-1.566E+01,5.200E-03,,
-1.566E+01,5.200E-03,,
-1.566E+01,5.200E-03,,
-1.566E+01,5.200E-03,,
-1.566E+01,5.200E-03,,
-1.566E+01,5.200E-03,,
-1.566E+01,5.200E-03,,
-1.566E+01,5.200E-03,,
-1.566E+01,5.200E-03,,
-1.566E+01,5.825E-03,,
-1.566E+01,5.825E-03,,
-1.566E+01,5.825E-03,,
-1.566E+01,5.200E-03,,
-1.566E+01,5.200E-03,,
-1.566E+01,5.200E-03,,
-1.566E+01,5.200E-03,,
-1.566E+01,5.200E-03,,
-1.566E+01,5.200E-03,,
-1.566E+01,5.200E-03,,
-1.566E+01,5.200E-03,,
-1.566E+01,5.200E-03,,
-1.566E+01,5.200E-03,,
-1.566E+01,5.200E-03,,
-1.566E+01,5.200E-03,,
-1.566E+01,5.200E-03,,
-1.566E+01,5.200E-03,,
-1.566E+01,5.200E-03,,
-1.566E+01,5.200E-03,,
-1.566E+01,5.200E-03,,
-1.566E+01,5.200E-03,,
-1.566E+01,5.200E-03,,
-1.566E+01,5.200E-03,,
-1.566E+01,5.200E-03,,
-1.566E+01,5.200E-03,,
-1.566E+01,5.200E-03,,
-1.566E+01,5.200E-03,,
-1.566E+01,5.200E-03,,
-1.566E+01,5.200E-03,,
-1.566E+01,5.200E-03,,
-1.566E+01,5.200E-03,,
-1.566E+01,5.200E-03,,
-1.566E+01,5.200E-03,,
-1.566E+01,5.200E-03,,
-1.566E+01,5.200E-03,,
-1.566E+01,5.200E-03,,
-1.566E+01,5.200E-03,,
-1.566E+01,5.200E-03,,
-1.566E+01,5.200E-03,,
-1.566E+01,5.200E-03,,
-1.566E+01,5.200E-03,,
-1.566E+01,5.200E-03,,
-1.566E+01,4.575E-03,,
-1.566E+01,4.575E-03,,
-1.566E+01,4.575E-03,,
-1.566E+01,4.575E-03,,
-1.566E+01,4.575E-03,,
-1.566E+01,4.575E-03,,
-1.566E+01,4.575E-03,,
-1.566E+01,4.575E-03,,
-1.566E+01,3.950E-03,,
-1.566E+01,4.575E-03,,
-1.566E+01,4.575E-03,,
-1.566E+01,4.575E-03,,
-1.566E+01,4.575E-03,,
-1.566E+01,4.575E-03,,
-1.566E+01,4.575E-03,,
-1.566E+01,4.575E-03,,
-1.566E+01,4.575E-03,,
-1.566E+01,4.575E-03,,
-1.566E+01,4.575E-03,,
-1.566E+01,4.575E-03,,
-1.566E+01,4.575E-03,,
-1.566E+01,4.575E-03,,
-1.566E+01,4.575E-03,,
-1.566E+01,4.575E-03,,
-1.566E+01,4.575E-03,,
-1.566E+01,4.575E-03,,
-1.566E+01,4.575E-03,,
-1.566E+01,4.575E-03,,
-1.566E+01,4.575E-03,,
-1.566E+01,4.575E-03,,
-1.566E+01,4.575E-03,,
-1.566E+01,4.575E-03,,
-1.566E+01,4.575E-03,,
-1.566E+01,4.575E-03,,
-1.566E+01,4.575E-03,,
-1.566E+01,4.575E-03,,
-1.566E+01,4.575E-03,,
-1.566E+01,4.575E-03,,
-1.566E+01,4.575E-03,,
-1.566E+01,4.575E-03,,
-1.566E+01,4.575E-03,,
-1.566E+01,4.575E-03,,
-1.566E+01,4.575E-03,,
-1.566E+01,4.575E-03,,
-1.566E+01,5.200E-03,,
-1.566E+01,5.200E-03,,
-1.566E+01,5.200E-03,,
-1.566E+01,5.200E-03,,
-1.566E+01,5.200E-03,,
-1.566E+01,4.575E-03,,
-1.566E+01,4.575E-03,,
-1.566E+01,4.575E-03,,
-1.566E+01,4.575E-03,,
-1.566E+01,4.575E-03,,
-1.566E+01,4.575E-03,,
-1.566E+01,4.575E-03,,
-1.566E+01,4.575E-03,,
-1.566E+01,4.575E-03,,
-1.566E+01,4.575E-03,,
-1.566E+01,4.575E-03,,
-1.566E+01,4.575E-03,,
