WAVE/AAAB0230.CSV

ModelName,DS-5314
FileVersion,1
Acquisition Time,2016/11/17 15:58:36
Time/div(second),500E-06
Delay(second),-2.02E-03
Delta(second),500E-09
Acquisition Mode,Average,64
Trigger Address,960
CH1 Display,Off
CH2 Display,On
CH3 Display,Off
CH4 Display,Off
CH1 Volt/div,500E-03
CH2 Volt/div,20.0E-03
CH3 Volt/div,2.00E+00
CH4 Volt/div,20.0E-03
CH1 Offset,770E-03
CH2 Offset,4.80E-03
CH3 Offset,0.00E+00
CH4 Offset,-23.6E-03
CH1 Coupling,AC1M
CH2 Coupling,AC1M
CH3 Coupling,AC1M
CH4 Coupling,AC1M
CH1 Bandwidth,20MHz
CH2 Bandwidth,Full
CH3 Bandwidth,Full
CH4 Bandwidth,Full
Points,10001
Ch1 V,Ch2 V,Ch3 V,Ch4 V
,-1.675E-03,,
,-1.675E-03,,
,-1.675E-03,,
,-1.675E-03,,
,-1.675E-03,,
,-1.675E-03,,
,-1.675E-03,,
,-1.675E-03,,
,-1.675E-03,,
,-1.675E-03,,
,-1.050E-03,,
,-1.050E-03,,
,-1.050E-03,,
,-1.050E-03,,
,-1.050E-03,,
,-1.050E-03,,
,-1.050E-03,,
,-1.050E-03,,
,-1.050E-03,,
,-1.050E-03,,
,-1.050E-03,,
,-1.050E-03,,
,-1.050E-03,,
,-1.050E-03,,
,-1.050E-03,,
,-1.050E-03,,
,-1.050E-03,,
,-1.050E-03,,
,-1.050E-03,,
,-1.050E-03,,
,-1.050E-03,,
,-1.050E-03,,
,-1.050E-03,,
,-1.050E-03,,
,-1.050E-03,,
,-1.050E-03,,
,-1.050E-03,,
,-1.050E-03,,
,-1.050E-03,,
,-1.050E-03,,
,-1.050E-03,,
,-1.050E-03,,
,-1.050E-03,,
,-1.050E-03,,
,-1.050E-03,,
,-1.050E-03,,
,-1.050E-03,,
,-1.050E-03,,
,-1.050E-03,,
,-1.050E-03,,
,-1.050E-03,,
,-4.250E-04,,
,-4.250E-04,,
,-1.050E-03,,
,-4.250E-04,,
,-1.050E-03,,
,-1.050E-03,,
,-1.050E-03,,
,-1.050E-03,,
,-1.050E-03,,
,-1.675E-03,,
,-1.675E-03,,
,-1.675E-03,,
,-1.675E-03,,
,-1.675E-03,,
,-1.675E-03,,
,-1.675E-03,,
,-1.675E-03,,
,-1.675E-03,,
,-1.050E-03,,
,-1.050E-03,,
,-1.050E-03,,
,-1.050E-03,,
,-1.050E-03,,
,-1.050E-03,,
,-1.050E-03,,
,-1.050E-03,,
,-1.050E-03,,
,-1.050E-03,,
,-1.050E-03,,
,-1.050E-03,,
,-1.050E-03,,
,-1.050E-03,,
,-1.050E-03,,
,-1.050E-03,,
,-1.050E-03,,
,-1.050E-03,,
,-1.050E-03,,
,-1.050E-03,,
,-1.050E-03,,
,-1.050E-03,,
,-1.675E-03,,
,-1.675E-03,,
,-1.675E-03,,
,-1.675E-03,,
,-1.675E-03,,
,-1.675E-03,,
,-1.675E-03,,
,-1.675E-03,,
,-1.675E-03,,
,-1.675E-03,,
,-1.675E-03,,
,-1.675E-03,,
,-1.050E-03,,
,-1.050E-03,,
,-1.050E-03,,
,-1.050E-03,,
,-1.050E-03,,
,-1.050E-03,,
,-1.050E-03,,
,-1.050E-03,,
,-1.050E-03,,
,-1.050E-03,,
,-1.050E-03,,
,-1.050E-03,,
,-1.050E-03,,
,-1.050E-03,,
,-1.050E-03,,
,-1.050E-03,,
,-1.675E-03,,
,-1.050E-03,,
,-1.675E-03,,
,-1.675E-03,,
,-1.675E-03,,
,-1.675E-03,,
,-1.675E-03,,
,-1.675E-03,,
,-1.675E-03,,
,-1.675E-03,,
,-1.675E-03,,
,-1.675E-03,,
,-1.675E-03,,
,-1.675E-03,,
,-1.675E-03,,
,-1.675E-03,,
,-1.675E-03,,
,-1.050E-03,,
,-1.050E-03,,
,-1.050E-03,,
,-1.050E-03,,
,-1.050E-03,,
,-1.050E-03,,
,-1.050E-03,,
,-1.675E-03,,
,-1.675E-03,,
,-1.675E-03,,
,-1.675E-03,,
,-1.675E-03,,
,-1.675E-03,,
,-1.675E-03,,
,-1.675E-03,,
,-1.675E-03,,
,-1.675E-03,,
,-1.675E-03,,
,-1.675E-03,,
,-1.675E-03,,
,-1.675E-03,,
,-1.675E-03,,
,-1.675E-03,,
,-1.675E-03,,
,-1.675E-03,,
,-1.675E-03,,
,-1.675E-03,,
,-1.675E-03,,
,-1.675E-03,,
,-1.675E-03,,
,-1.675E-03,,
,-1.675E-03,,
,-1.675E-03,,
,-1.675E-03,,
,-1.675E-03,,
,-1.050E-03,,
,-1.050E-03,,
,-1.050E-03,,
,-1.050E-03,,
,-1.050E-03,,
,-1.675E-03,,
,-1.675E-03,,
,-1.675E-03,,
,-1.675E-03,,
,-1.675E-03,,
,-1.675E-03,,
,-1.675E-03,,
,-1.675E-03,,
,-2.300E-03,,
,-2.300E-03,,
,-2.300E-03,,
,-2.300E-03,,
,-2.300E-03,,
,-2.300E-03,,
,-2.300E-03,,
,-2.300E-03,,
,-1.675E-03,,
,-1.675E-03,,
,-1.675E-03,,
,-1.675E-03,,
,-1.675E-03,,
,-1.675E-03,,
,-1.050E-03,,
,-1.050E-03,,
,-1.050E-03,,
,-1.050E-03,,
,-1.675E-03,,
,-1.675E-03,,
,-1.675E-03,,
,-1.675E-03,,
,-1.675E-03,,
,-1.675E-03,,
,-1.675E-03,,
,-1.675E-03,,
,-1.675E-03,,
,-1.675E-03,,
,-1.675E-03,,
,-2.300E-03,,
,-2.300E-03,,
,-2.300E-03,,
,-2.300E-03,,
,-2.300E-03,,
,-2.300E-03,,
,-2.300E-03,,
,-2.300E-03,,
,-1.675E-03,,
,-1.675E-03,,
,-1.675E-03,,
,-1.675E-03,,
,-1.675E-03,,
,-1.675E-03,,
,-1.675E-03,,
,-1.675E-03,,
,-1.675E-03,,
,-1.675E-03,,
,-1.050E-03,,
,-1.050E-03,,
,-1.050E-03,,
,-1.050E-03,,
,-1.675E-03,,
,-1.675E-03,,
,-1.675E-03,,
,-1.675E-03,,
,-1.675E-03,,
,-1.675E-03,,
,-2.300E-03,,
,-2.300E-03,,
,-2.300E-03,,
,-2.300E-03,,
,-2.300E-03,,
,-2.300E-03,,
,-2.300E-03,,
,-2.300E-03,,
,-2.300E-03,,
,-2.300E-03,,
,-2.300E-03,,
,-2.300E-03,,
,-2.300E-03,,
,-2.300E-03,,
,-2.300E-03,,
,-2.300E-03,,
,-2.300E-03,,
,-2.300E-03,,
,-2.300E-03,,
,-2.300E-03,,
,-1.675E-03,,
,-1.675E-03,,
,-1.675E-03,,
,-1.675E-03,,
,-1.675E-03,,
,-1.675E-03,,
,-2.300E-03,,
,-2.300E-03,,
,-2.300E-03,,
,-2.300E-03,,
,-2.300E-03,,
,-2.300E-03,,
,-2.925E-03,,
,-2.925E-03,,
,-2.300E-03,,
,-2.300E-03,,
,-2.300E-03,,
,-2.300E-03,,
,-2.300E-03,,
,-2.300E-03,,
,-2.300E-03,,
,-2.300E-03,,
,-2.300E-03,,
,-1.675E-03,,
,-1.675E-03,,
,-1.675E-03,,
,-1.675E-03,,
,-2.300E-03,,
,-2.300E-03,,
,-2.300E-03,,
,-2.300E-03,,
,-2.300E-03,,
,-2.300E-03,,
,-2.300E-03,,
,-2.300E-03,,
,-2.300E-03,,
,-2.300E-03,,
,-2.300E-03,,
,-2.300E-03,,
,-2.300E-03,,
,-2.300E-03,,
,-2.300E-03,,
,-2.300E-03,,
,-2.925E-03,,
,-2.925E-03,,
,-2.925E-03,,
,-2.925E-03,,
,-2.925E-03,,
,-2.925E-03,,
,-2.925E-03,,
,-2.925E-03,,
,-2.300E-03,,
,-2.300E-03,,
,-2.300E-03,,
,-2.300E-03,,
,-2.300E-03,,
,-1.675E-03,,
,-1.675E-03,,
,-2.300E-03,,
,-2.300E-03,,
,-2.300E-03,,
,-2.300E-03,,
,-2.300E-03,,
,-2.300E-03,,
,-2.300E-03,,
,-2.300E-03,,
,-2.300E-03,,
,-2.300E-03,,
,-2.300E-03,,
,-2.300E-03,,
,-2.300E-03,,
,-2.300E-03,,
,-2.300E-03,,
,-2.300E-03,,
,-2.300E-03,,
,-2.300E-03,,
,-2.300E-03,,
,-2.300E-03,,
,-2.300E-03,,
,-2.300E-03,,
,-2.300E-03,,
,-2.300E-03,,
,-2.300E-03,,
,-2.300E-03,,
,-1.675E-03,,
,-1.675E-03,,
,-2.300E-03,,
,-1.675E-03,,
,-1.675E-03,,
,-2.300E-03,,
,-2.300E-03,,
,-2.300E-03,,
,-1.675E-03,,
,-1.675E-03,,
,-1.675E-03,,
,-1.675E-03,,
,-1.675E-03,,
,-1.675E-03,,
,-1.675E-03,,
,-1.675E-03,,
,-1.675E-03,,
,-1.675E-03,,
,-2.300E-03,,
,-2.300E-03,,
,-2.300E-03,,
,-2.300E-03,,
,-2.300E-03,,
,-2.300E-03,,
,-2.300E-03,,
,-2.300E-03,,
,-1.675E-03,,
,-1.675E-03,,
,-1.675E-03,,
,-1.675E-03,,
,-1.675E-03,,
,-1.675E-03,,
,-1.675E-03,,
,-1.675E-03,,
,-1.675E-03,,
,-1.675E-03,,
,-1.675E-03,,
,-1.675E-03,,
,-1.675E-03,,
,-1.675E-03,,
,-1.675E-03,,
,-1.675E-03,,
,-1.675E-03,,
,-1.675E-03,,
,-1.675E-03,,
,-1.675E-03,,
,-1.675E-03,,
,-1.675E-03,,
,-1.675E-03,,
,-1.675E-03,,
,-1.675E-03,,
,-1.675E-03,,
,-1.675E-03,,
,-1.675E-03,,
,-1.675E-03,,
,-1.675E-03,,
,-1.675E-03,,
,-1.675E-03,,
,-1.675E-03,,
,-1.675E-03,,
,-1.675E-03,,
,-1.675E-03,,
,-1.050E-03,,
,-1.050E-03,,
,-1.050E-03,,
,-1.050E-03,,
,-1.050E-03,,
,-1.050E-03,,
,-1.050E-03,,
,-1.050E-03,,
,-1.050E-03,,
,-1.050E-03,,
,-1.050E-03,,
,-1.050E-03,,
,-1.050E-03,,
,-1.675E-03,,
,-1.675E-03,,
,-1.675E-03,,
,-1.675E-03,,
,-1.675E-03,,
,-1.675E-03,,
,-1.675E-03,,
,-1.675E-03,,
,-1.675E-03,,
,-1.675E-03,,
,-1.675E-03,,
,-1.675E-03,,
,-1.675E-03,,
,-1.675E-03,,
,-1.675E-03,,
,-1.675E-03,,
,-1.675E-03,,
,-1.675E-03,,
,-1.675E-03,,
,-1.050E-03,,
,-1.050E-03,,
,-1.050E-03,,
,-1.050E-03,,
,-1.050E-03,,
,-1.050E-03,,
,-1.050E-03,,
,-1.050E-03,,
,-1.050E-03,,
,-1.050E-03,,
,-1.050E-03,,
,-1.050E-03,,
,-1.675E-03,,
,-1.675E-03,,
,-1.675E-03,,
,-1.675E-03,,
,-1.675E-03,,
,-1.675E-03,,
,-1.675E-03,,
,-1.675E-03,,
,-1.675E-03,,
,-1.675E-03,,
,-1.675E-03,,
,-1.675E-03,,
,-1.675E-03,,
,-1.675E-03,,
,-1.675E-03,,
,-1.050E-03,,
,-1.675E-03,,
,-1.050E-03,,
,-1.050E-03,,
,-1.050E-03,,
,-1.050E-03,,
,-1.050E-03,,
,-1.050E-03,,
,-1.050E-03,,
,-1.050E-03,,
,-1.050E-03,,
,-1.050E-03,,
,-1.050E-03,,
,-1.050E-03,,
,-1.050E-03,,
,-1.050E-03,,
,-1.050E-03,,
,-1.675E-03,,
,-1.675E-03,,
,-1.050E-03,,
,-1.050E-03,,
,-1.050E-03,,
,-1.050E-03,,
,-1.050E-03,,
,-1.050E-03,,
,-1.050E-03,,
,-1.050E-03,,
,-1.050E-03,,
,-1.050E-03,,
,-1.050E-03,,
,-1.050E-03,,
,-1.050E-03,,
,-1.050E-03,,
,-1.050E-03,,
,-1.050E-03,,
,-1.050E-03,,
,-1.050E-03,,
,-1.050E-03,,
,-1.050E-03,,
,-1.050E-03,,
,-1.050E-03,,
,-4.250E-04,,
,-4.250E-04,,
,-4.250E-04,,
,-4.250E-04,,
,-1.050E-03,,
,-1.050E-03,,
,-1.050E-03,,
,-1.050E-03,,
,-1.050E-03,,
,-1.050E-03,,
,-1.050E-03,,
,-1.050E-03,,
,-1.050E-03,,
,-1.050E-03,,
,-1.050E-03,,
,-1.050E-03,,
,-1.050E-03,,
,-1.050E-03,,
,-4.250E-04,,
,-4.250E-04,,
,-4.250E-04,,
,-4.250E-04,,
,-4.250E-04,,
,-4.250E-04,,
,-4.250E-04,,
,-4.250E-04,,
,-4.250E-04,,
,-4.250E-04,,
,-4.250E-04,,
,-4.250E-04,,
,-4.250E-04,,
,-4.250E-04,,
,-1.050E-03,,
,-1.050E-03,,
,-1.050E-03,,
,-1.050E-03,,
,-1.050E-03,,
,-1.050E-03,,
,-1.050E-03,,
,-1.050E-03,,
,-1.050E-03,,
,-1.050E-03,,
,-1.050E-03,,
,-1.050E-03,,
,-1.050E-03,,
,-1.050E-03,,
,-1.050E-03,,
,-4.250E-04,,
,-1.050E-03,,
,-1.050E-03,,
,-1.050E-03,,
,-1.050E-03,,
,-1.050E-03,,
,-1.050E-03,,
,-1.050E-03,,
,-1.050E-03,,
,-1.050E-03,,
,-1.050E-03,,
,-4.250E-04,,
,-4.250E-04,,
,-1.050E-03,,
,-4.250E-04,,
,-1.050E-03,,
,-1.050E-03,,
,-1.050E-03,,
,-1.050E-03,,
,-1.050E-03,,
,-1.050E-03,,
,-1.050E-03,,
,-1.050E-03,,
,-1.050E-03,,
,-1.050E-03,,
,-1.050E-03,,
,-1.050E-03,,
,-1.050E-03,,
,-4.250E-04,,
,-4.250E-04,,
,-4.250E-04,,
,-4.250E-04,,
,-4.250E-04,,
,-4.250E-04,,
,-1.050E-03,,
,-4.250E-04,,
,-4.250E-04,,
,-4.250E-04,,
,-4.250E-04,,
,-4.250E-04,,
,-4.250E-04,,
,-4.250E-04,,
,-4.250E-04,,
,-4.250E-04,,
,-4.250E-04,,
,-4.250E-04,,
,-4.250E-04,,
,-1.050E-03,,
,-1.050E-03,,
,-1.050E-03,,
,-1.050E-03,,
,-1.050E-03,,
,-1.050E-03,,
,-1.050E-03,,
,-1.050E-03,,
,-1.050E-03,,
,-1.050E-03,,
,-1.050E-03,,
,-1.050E-03,,
,-1.050E-03,,
,-1.050E-03,,
,-1.050E-03,,
,-1.050E-03,,
,-1.050E-03,,
,-4.250E-04,,
,-4.250E-04,,
,-4.250E-04,,
,-4.250E-04,,
,-4.250E-04,,
,-4.250E-04,,
,-1.050E-03,,
,-1.050E-03,,
,-1.050E-03,,
,-1.050E-03,,
,-1.675E-03,,
,-1.050E-03,,
,-1.675E-03,,
,-1.675E-03,,
,-1.675E-03,,
,-1.675E-03,,
,-1.050E-03,,
,-1.050E-03,,
,-1.050E-03,,
,-1.050E-03,,
,-1.675E-03,,
,-1.675E-03,,
,-1.675E-03,,
,-1.675E-03,,
,-1.675E-03,,
,-1.675E-03,,
,-1.675E-03,,
,-1.050E-03,,
,-1.050E-03,,
,-1.050E-03,,
,-1.050E-03,,
,-1.050E-03,,
,-1.050E-03,,
,-1.050E-03,,
,-1.050E-03,,
,-1.050E-03,,
,-1.050E-03,,
,-1.050E-03,,
,-1.050E-03,,
,-1.050E-03,,
,-1.050E-03,,
,-1.050E-03,,
,-1.050E-03,,
,-1.050E-03,,
,-1.050E-03,,
,-1.675E-03,,
,-1.675E-03,,
,-1.675E-03,,
,-1.675E-03,,
,-1.050E-03,,
,-1.050E-03,,
,-1.050E-03,,
,-1.050E-03,,
,-1.050E-03,,
,-1.050E-03,,
,-1.050E-03,,
,-1.050E-03,,
,-1.050E-03,,
,-1.050E-03,,
,-1.050E-03,,
,-1.050E-03,,
,-1.050E-03,,
,-1.050E-03,,
,-4.250E-04,,
,-1.050E-03,,
,-4.250E-04,,
,-4.250E-04,,
,-4.250E-04,,
,-4.250E-04,,
,-4.250E-04,,
,-4.250E-04,,
,-4.250E-04,,
,-4.250E-04,,
,-4.250E-04,,
,-4.250E-04,,
,-1.050E-03,,
,-1.050E-03,,
,-1.050E-03,,
,-1.050E-03,,
,-1.050E-03,,
,-1.050E-03,,
,-1.050E-03,,
,-1.050E-03,,
,-1.050E-03,,
,-1.050E-03,,
,-1.050E-03,,
,-1.050E-03,,
,-1.050E-03,,
,-1.050E-03,,
,-1.050E-03,,
,-1.050E-03,,
,-4.250E-04,,
,-4.250E-04,,
,-1.050E-03,,
,-1.050E-03,,
,-1.050E-03,,
,-1.050E-03,,
,-1.050E-03,,
,-4.250E-04,,
,-4.250E-04,,
,-4.250E-04,,
,-4.250E-04,,
,-4.250E-04,,
,-4.250E-04,,
,-4.250E-04,,
,-4.250E-04,,
,-1.050E-03,,
,-1.050E-03,,
,-1.050E-03,,
,-1.050E-03,,
,-1.050E-03,,
,-1.050E-03,,
,-1.050E-03,,
,-4.250E-04,,
,-4.250E-04,,
,-4.250E-04,,
,-4.250E-04,,
,-4.250E-04,,
,-4.250E-04,,
,-4.250E-04,,
,-4.250E-04,,
,-4.250E-04,,
,-4.250E-04,,
,-4.250E-04,,
,-4.250E-04,,
,-4.250E-04,,
,-4.250E-04,,
,-4.250E-04,,
,-4.250E-04,,
,-4.250E-04,,
,-4.250E-04,,
,-4.250E-04,,
,-4.250E-04,,
,-4.250E-04,,
,-4.250E-04,,
,-4.250E-04,,
,-4.250E-04,,
,-4.250E-04,,
,-4.250E-04,,
,-4.250E-04,,
,-1.050E-03,,
,-1.050E-03,,
,-4.250E-04,,
,-1.050E-03,,
,-4.250E-04,,
,-4.250E-04,,
,-4.250E-04,,
,-4.250E-04,,
,-4.250E-04,,
,-4.250E-04,,
,-4.250E-04,,
,-4.250E-04,,
,-4.250E-04,,
,-4.250E-04,,
,-4.250E-04,,
,-4.250E-04,,
,-4.250E-04,,
,-4.250E-04,,
,-4.250E-04,,
,-4.250E-04,,
,-4.250E-04,,
,-4.250E-04,,
,-1.050E-03,,
,-1.050E-03,,
,-1.050E-03,,
,-1.050E-03,,
,-1.050E-03,,
,-1.050E-03,,
,-1.050E-03,,
,-1.050E-03,,
,-1.050E-03,,
,-1.050E-03,,
,-1.050E-03,,
,-1.050E-03,,
,-1.050E-03,,
,-1.050E-03,,
,-1.050E-03,,
,-1.050E-03,,
,-1.050E-03,,
,-1.050E-03,,
,-1.050E-03,,
,-1.050E-03,,
,-1.050E-03,,
,-1.050E-03,,
,-1.050E-03,,
,-1.050E-03,,
,-1.050E-03,,
,-1.050E-03,,
,-1.050E-03,,
,-1.050E-03,,
,-1.050E-03,,
,-1.050E-03,,
,-1.050E-03,,
,-1.050E-03,,
,-1.050E-03,,
,-1.050E-03,,
,-1.050E-03,,
,-1.050E-03,,
,-1.050E-03,,
,-1.050E-03,,
,-1.675E-03,,
,-1.675E-03,,
,-1.675E-03,,
,-1.675E-03,,
,-1.675E-03,,
,-1.675E-03,,
,-1.050E-03,,
,-1.050E-03,,
,-1.050E-03,,
,-1.050E-03,,
,-1.050E-03,,
,-1.050E-03,,
,-1.050E-03,,
,-1.050E-03,,
,-1.050E-03,,
,-1.050E-03,,
,-1.050E-03,,
,-1.050E-03,,
,-1.050E-03,,
,-1.050E-03,,
,-1.675E-03,,
,-1.675E-03,,
,-1.675E-03,,
,-1.675E-03,,
,-1.675E-03,,
,-1.675E-03,,
,-1.675E-03,,
,-1.675E-03,,
,-1.675E-03,,
,-1.675E-03,,
,-1.675E-03,,
,-1.675E-03,,
,-1.675E-03,,
,-1.675E-03,,
,-1.675E-03,,
,-1.675E-03,,
,-1.675E-03,,
,-1.675E-03,,
,-1.675E-03,,
,-1.675E-03,,
,-1.675E-03,,
,-1.050E-03,,
,-1.050E-03,,
,-1.050E-03,,
,-1.050E-03,,
,-1.050E-03,,
,-1.050E-03,,
,-1.050E-03,,
,-1.050E-03,,
,-1.675E-03,,
,-1.675E-03,,
,-1.675E-03,,
,-1.675E-03,,
,-1.675E-03,,
,-1.675E-03,,
,-1.675E-03,,
,-1.675E-03,,
,-1.675E-03,,
,-1.675E-03,,
,-1.675E-03,,
,-1.675E-03,,
,-1.675E-03,,
,-1.675E-03,,
,-1.675E-03,,
,-1.675E-03,,
,-1.675E-03,,
,-2.300E-03,,
,-2.300E-03,,
,-1.675E-03,,
,-1.675E-03,,
,-1.675E-03,,
,-1.675E-03,,
,-1.675E-03,,
,-1.675E-03,,
,-1.675E-03,,
,-1.675E-03,,
,-1.675E-03,,
,-1.675E-03,,
,-1.675E-03,,
,-1.675E-03,,
,-1.675E-03,,
,-1.675E-03,,
,-1.675E-03,,
,-1.675E-03,,
,-1.675E-03,,
,-1.675E-03,,
,-1.675E-03,,
,-1.675E-03,,
,-1.675E-03,,
,-1.675E-03,,
,-2.300E-03,,
,-2.300E-03,,
,-1.675E-03,,
,-1.675E-03,,
,-2.300E-03,,
,-2.300E-03,,
,-2.300E-03,,
,-2.300E-03,,
,-2.300E-03,,
,-2.300E-03,,
,-2.300E-03,,
,-2.300E-03,,
,-2.300E-03,,
,-2.300E-03,,
,-2.300E-03,,
,-2.300E-03,,
,-2.300E-03,,
,-2.300E-03,,
,-2.300E-03,,
,-2.300E-03,,
,-2.300E-03,,
,-2.300E-03,,
,-2.300E-03,,
,-2.300E-03,,
,-2.300E-03,,
,-2.300E-03,,
,-2.925E-03,,
,-2.925E-03,,
,-2.300E-03,,
,-2.300E-03,,
,-2.300E-03,,
,-2.925E-03,,
,-2.300E-03,,
,-2.925E-03,,
,-2.300E-03,,
,-2.300E-03,,
,-2.300E-03,,
,-2.300E-03,,
,-2.300E-03,,
,-2.300E-03,,
,-2.925E-03,,
,-2.925E-03,,
,-2.925E-03,,
,-2.925E-03,,
,-2.925E-03,,
,-2.925E-03,,
,-2.925E-03,,
,-2.925E-03,,
,-2.925E-03,,
,-2.925E-03,,
,-2.925E-03,,
,-2.925E-03,,
,-2.925E-03,,
,-2.925E-03,,
,-2.925E-03,,
,-2.925E-03,,
,-3.550E-03,,
,-3.550E-03,,
,-3.550E-03,,
,-3.550E-03,,
,-3.550E-03,,
,-3.550E-03,,
,-3.550E-03,,
,-3.550E-03,,
,-3.550E-03,,
,-2.925E-03,,
,-2.925E-03,,
,-2.925E-03,,
,-2.925E-03,,
,-2.925E-03,,
,-2.925E-03,,
,-2.925E-03,,
,-2.925E-03,,
,-2.925E-03,,
,-2.925E-03,,
,-2.925E-03,,
,-3.550E-03,,
,-3.550E-03,,
,-3.550E-03,,
,-3.550E-03,,
,-3.550E-03,,
,-3.550E-03,,
,-3.550E-03,,
,-3.550E-03,,
,-3.550E-03,,
,-3.550E-03,,
,-3.550E-03,,
,-3.550E-03,,
,-3.550E-03,,
,-3.550E-03,,
,-3.550E-03,,
,-3.550E-03,,
,-3.550E-03,,
,-3.550E-03,,
,-3.550E-03,,
,-3.550E-03,,
,-3.550E-03,,
,-3.550E-03,,
,-3.550E-03,,
,-3.550E-03,,
,-3.550E-03,,
,-3.550E-03,,
,-2.925E-03,,
,-2.925E-03,,
,-2.925E-03,,
,-2.925E-03,,
,-2.925E-03,,
,-3.550E-03,,
,-3.550E-03,,
,-3.550E-03,,
,-3.550E-03,,
,-3.550E-03,,
,-3.550E-03,,
,-3.550E-03,,
,-3.550E-03,,
,-3.550E-03,,
,-3.550E-03,,
,-3.550E-03,,
,-3.550E-03,,
,-3.550E-03,,
,-3.550E-03,,
,-3.550E-03,,
,-4.175E-03,,
,-4.175E-03,,
,-4.175E-03,,
,-3.550E-03,,
,-3.550E-03,,
,-3.550E-03,,
,-3.550E-03,,
,-3.550E-03,,
,-3.550E-03,,
,-3.550E-03,,
,-3.550E-03,,
,-3.550E-03,,
,-2.925E-03,,
,-2.925E-03,,
,-2.925E-03,,
,-3.550E-03,,
,-3.550E-03,,
,-3.550E-03,,
,-2.925E-03,,
,-3.550E-03,,
,-3.550E-03,,
,-3.550E-03,,
,-3.550E-03,,
,-3.550E-03,,
,-3.550E-03,,
,-3.550E-03,,
,-3.550E-03,,
,-3.550E-03,,
,-3.550E-03,,
,-3.550E-03,,
,-3.550E-03,,
,-3.550E-03,,
,-3.550E-03,,
,-3.550E-03,,
,-3.550E-03,,
,-3.550E-03,,
,-3.550E-03,,
,-3.550E-03,,
,-2.925E-03,,
,-2.925E-03,,
,-2.925E-03,,
,-2.925E-03,,
,-2.925E-03,,
,-2.925E-03,,
,-2.925E-03,,
,-2.925E-03,,
,-2.925E-03,,
,-2.925E-03,,
,-2.925E-03,,
,-2.925E-03,,
,-2.925E-03,,
,-2.925E-03,,
,-3.550E-03,,
,-3.550E-03,,
,-3.550E-03,,
,-3.550E-03,,
,-3.550E-03,,
,-3.550E-03,,
,-3.550E-03,,
,-3.550E-03,,
,-3.550E-03,,
,-3.550E-03,,
,-3.550E-03,,
,-3.550E-03,,
,-3.550E-03,,
,-3.550E-03,,
,-2.925E-03,,
,-2.925E-03,,
,-2.925E-03,,
,-2.925E-03,,
,-2.300E-03,,
,-2.300E-03,,
,-2.300E-03,,
,-2.300E-03,,
,-2.300E-03,,
,-2.300E-03,,
,-2.300E-03,,
,-2.300E-03,,
,-2.300E-03,,
,-2.300E-03,,
,-2.925E-03,,
,-2.925E-03,,
,-2.925E-03,,
,-3.550E-03,,
,-3.550E-03,,
,-3.550E-03,,
,-3.550E-03,,
,-3.550E-03,,
,-3.550E-03,,
,-3.550E-03,,
,-3.550E-03,,
,-3.550E-03,,
,-3.550E-03,,
,-3.550E-03,,
,-3.550E-03,,
,-2.925E-03,,
,-2.925E-03,,
,-2.925E-03,,
,-2.925E-03,,
,-2.925E-03,,
,-2.300E-03,,
,-2.300E-03,,
,-2.300E-03,,
,-2.300E-03,,
,-2.300E-03,,
,-2.300E-03,,
,-2.300E-03,,
,-2.300E-03,,
,-2.300E-03,,
,-2.300E-03,,
,-2.925E-03,,
,-2.925E-03,,
,-2.925E-03,,
,-2.925E-03,,
,-2.925E-03,,
,-2.925E-03,,
,-2.925E-03,,
,-3.550E-03,,
,-3.550E-03,,
,-3.550E-03,,
,-3.550E-03,,
,-3.550E-03,,
,-3.550E-03,,
,-3.550E-03,,
,-2.925E-03,,
,-2.925E-03,,
,-2.925E-03,,
,-2.925E-03,,
,-2.925E-03,,
,-2.925E-03,,
,-2.300E-03,,
,-2.300E-03,,
,-2.300E-03,,
,-2.300E-03,,
,-1.675E-03,,
,-1.675E-03,,
,-2.300E-03,,
,-2.300E-03,,
,-2.300E-03,,
,-2.300E-03,,
,-2.300E-03,,
,-2.925E-03,,
,-2.925E-03,,
,-2.925E-03,,
,-2.925E-03,,
,-3.550E-03,,
,-3.550E-03,,
,-3.550E-03,,
,-3.550E-03,,
,-3.550E-03,,
,-3.550E-03,,
,-3.550E-03,,
,-3.550E-03,,
,-3.550E-03,,
,-2.925E-03,,
,-2.925E-03,,
,-2.925E-03,,
,-2.300E-03,,
,-2.300E-03,,
,-2.300E-03,,
,-2.300E-03,,
,-2.300E-03,,
,-2.300E-03,,
,-1.675E-03,,
,-1.675E-03,,
,-1.675E-03,,
,-1.675E-03,,
,-2.300E-03,,
,-2.300E-03,,
,-2.300E-03,,
,-2.925E-03,,
,-2.925E-03,,
,-2.925E-03,,
,-3.550E-03,,
,-3.550E-03,,
,-4.175E-03,,
,-4.175E-03,,
,-4.175E-03,,
,-4.800E-03,,
,-4.800E-03,,
,-4.800E-03,,
,-4.800E-03,,
,-4.175E-03,,
,-4.175E-03,,
,-4.175E-03,,
,-3.550E-03,,
,-3.550E-03,,
,-2.925E-03,,
,-2.925E-03,,
,-2.925E-03,,
,-2.300E-03,,
,-2.300E-03,,
,-2.300E-03,,
,-2.300E-03,,
,-1.675E-03,,
,-1.675E-03,,
,-1.675E-03,,
,-2.300E-03,,
,-2.300E-03,,
,-2.300E-03,,
,-2.925E-03,,
,-2.925E-03,,
,-3.550E-03,,
,-3.550E-03,,
,-4.175E-03,,
,-4.175E-03,,
,-4.800E-03,,
,-4.800E-03,,
,-4.800E-03,,
,-4.800E-03,,
,-4.800E-03,,
,-4.800E-03,,
,-4.800E-03,,
,-4.800E-03,,
,-4.175E-03,,
,-4.175E-03,,
,-3.550E-03,,
,-3.550E-03,,
,-2.925E-03,,
,-2.925E-03,,
,-2.925E-03,,
,-2.300E-03,,
,-2.300E-03,,
,-2.300E-03,,
,-2.300E-03,,
,-2.300E-03,,
,-2.300E-03,,
,-2.300E-03,,
,-2.300E-03,,
,-2.925E-03,,
,-3.550E-03,,
,-3.550E-03,,
,-4.175E-03,,
,-4.175E-03,,
,-4.800E-03,,
,-4.800E-03,,
,-5.425E-03,,
,-5.425E-03,,
,-5.425E-03,,
,-5.425E-03,,
,-5.425E-03,,
,-5.425E-03,,
,-5.425E-03,,
,-4.800E-03,,
,-4.800E-03,,
,-4.175E-03,,
,-4.175E-03,,
,-3.550E-03,,
,-3.550E-03,,
,-2.925E-03,,
,-2.925E-03,,
,-2.300E-03,,
,-2.300E-03,,
,-1.675E-03,,
,-1.675E-03,,
,-1.675E-03,,
,-1.675E-03,,
,-2.300E-03,,
,-2.300E-03,,
,-2.925E-03,,
,-2.925E-03,,
,-3.550E-03,,
,-4.175E-03,,
,-4.175E-03,,
,-4.800E-03,,
,-4.800E-03,,
,-4.800E-03,,
,-5.425E-03,,
,-5.425E-03,,
,-5.425E-03,,
,-5.425E-03,,
,-5.425E-03,,
,-5.425E-03,,
,-5.425E-03,,
,-4.800E-03,,
,-4.800E-03,,
,-4.175E-03,,
,-3.550E-03,,
,-2.925E-03,,
,-2.925E-03,,
,-2.300E-03,,
,-2.300E-03,,
,-2.300E-03,,
,-2.300E-03,,
,-2.300E-03,,
,-2.300E-03,,
,-2.300E-03,,
,-2.300E-03,,
,-2.300E-03,,
,-2.925E-03,,
,-3.550E-03,,
,-3.550E-03,,
,-4.175E-03,,
,-4.800E-03,,
,-5.425E-03,,
,-5.425E-03,,
,-6.050E-03,,
,-6.050E-03,,
,-6.675E-03,,
,-6.675E-03,,
,-6.675E-03,,
,-6.675E-03,,
,-6.050E-03,,
,-6.050E-03,,
,-5.425E-03,,
,-5.425E-03,,
,-4.800E-03,,
,-4.175E-03,,
,-3.550E-03,,
,-2.925E-03,,
,-2.925E-03,,
,-2.300E-03,,
,-2.300E-03,,
,-1.675E-03,,
,-1.675E-03,,
,-1.675E-03,,
,-1.675E-03,,
,-1.675E-03,,
,-2.300E-03,,
,-2.925E-03,,
,-2.925E-03,,
,-3.550E-03,,
,-4.175E-03,,
,-4.800E-03,,
,-5.425E-03,,
,-6.050E-03,,
,-6.050E-03,,
,-6.675E-03,,
,-6.675E-03,,
,-6.675E-03,,
,-6.675E-03,,
,-6.675E-03,,
,-6.675E-03,,
,-6.050E-03,,
,-6.050E-03,,
,-5.425E-03,,
,-4.800E-03,,
,-4.175E-03,,
,-4.175E-03,,
,-3.550E-03,,
,-2.925E-03,,
,-2.300E-03,,
,-1.675E-03,,
,-1.675E-03,,
,-1.675E-03,,
,-1.050E-03,,
,-1.050E-03,,
,-1.675E-03,,
,-1.675E-03,,
,-2.300E-03,,
,-2.925E-03,,
,-3.550E-03,,
,-4.175E-03,,
,-4.800E-03,,
,-5.425E-03,,
